200,0,0,1,0,0,0,0,-42981.3,-0,-0,-214.906,
0,0,0,0,200,0,0,1,-59690.3,-0,-0,-298.452,
200,20,0,1,0,0,0,0,-44498.8,-4449.88,-0,-222.494,
0,0,0,0,200,20,0,1,-61252.2,-6125.22,-0,-306.261,
200,40,0,1,0,0,0,0,-46053.7,-9210.74,-0,-230.268,
0,0,0,0,200,40,0,1,-62852.5,-12570.5,-0,-314.262,
200,60,0,1,0,0,0,0,-47647.3,-14294.2,-0,-238.236,
0,0,0,0,200,60,0,1,-64492.6,-19347.8,-0,-322.463,
200,80,0,1,0,0,0,0,-49281,-19712.4,-0,-246.405,
0,0,0,0,200,80,0,1,-66174,-26469.6,-0,-330.87,
200,100,0,1,0,0,0,0,-50956.5,-25478.2,-0,-254.782,
0,0,0,0,200,100,0,1,-67898.4,-33949.2,-0,-339.492,
